4757 339100 443
4672 751365 509
1463 926113 525
7832 997679 525
3631 499413 449
5205 801553 509
3125 548165 470
4448 45105 324
8590 767916 509
6041 290977 443
7868 267250 443
5820 400247 443
7077 564073 470
7247 16843 276
5697 883174 525
6109 309489 443
461 979491 525
2539 142451 354
2792 429155 449
8101 511374 449
3049 69710 340
8667 889724 525
6418 499246 449
6767 364084 443
377 496607 449
6502 443809 449
8944 387794 443
668 991262 525
6739 951653 525
1360 888681 525
9373 854828 525
5810 600081 470
1683 971721 525
3292 761185 509
5674 481300 449
3835 878322 525
6510 405958 443
2914 788011 509
7455 720701 509
5744 539770 470
3494 320546 443
5144 883852 525
7733 660647 509
9243 470753 449
4726 836274 509
9377 97714 351
8756 15691 276
1705 58300 340
4659 552712 470
6290 752853 509
73452 571985 470
95208 228178 386
29408 361433 443
21413 868709 525
76388 635402 509
13009 354400 443
46641 43254 314
64382 162355 383
67950 452135 449
34756 30046 311
80842 521468 470
94500 924989 525
28998 829817 509
90435 233921 443
84196 226327 386
11305 456368 449
34037 554812 470
85641 39297 351
37073 853035 525
85312 167871 383
59033 771592 509
46613 10428 324
40597 838077 525
37736 21226 324
88361 612258 470
33085 815513 509
45053 841521 525
55555 297869 443
5871 859633 525
23980 250800 443
7748 405217 443
2688 481449 449
47772 130296 354
39672 882859 525
51783 568761 470
40373 811200 509
74872 220633 386
20786 949060 525
13638 940421 525
72829 175877 383
25684 211458 383
82734 726820 509
47710 888958 525
50323 96320 351
29972 740762 509
42948 948529 525
30581 454007 449
88076 539591 470
86280 875716 525
36327 919752 525
662191 893650 525
804944 224487 509
305493 356486 441
518394 74050 470
709786 254637 509
917585 239835 525
650447 946475 525
161802 596071 470
333038 207035 443
705715 370529 509
807260 347736 509
203406 527356 470
65370 528400 470
172015 114771 383
917824 196443 525
129018 754500 509
864005 517447 525
46530 32192 324
86753 489176 449
632625 380894 509
639001 382985 509
508885 672261 509
6469 664474 509
642868 665587 442
375103 279808 441
147592 719533 509
134465 819142 509
837792 38753 509
966215 760861 525
110369 339430 443
116293 435121 449
372845 484716 449
133499 72585 354
873308 87744 525
770238 247083 509
765442 117544 509
839100 683939 525
673975 710612 504
772890 71135 509
147412 891312 525
945385 606327 525
51398 505253 449
489249 841015 525
275854 576706 470
419506 90816 449
686494 805159 504
358384 323425 441
694605 762911 504
827138 687084 504
950919 807758 525
999999 999999 259
9 9 20
1 999999 525
1 1 1
